Digital behavioral data – 🔨 Working with R
…
🔍 Wie lauten die Variablennamen? Sind sie sinnvoll?

Welchen Typ hat jede Variable, z. B. numerisch, kategorisch, logisch?

Wie viele eindeutige Werte hat jede Variable?

Welcher Wert tritt am häufigsten auf, und wie oft kommt er vor?

Gibt es fehlende Werte? Wenn ja, wie häufig ist dies der Fall?

age_gaps <- read_csv("http://hollywoodagegap.com/movies.csv") 
age_gaps 

# A tibble: 1,199 × 12
   `Movie Name`       `Release Year` Director    `Age Difference` `Actor 1 Name`
   <chr>                       <dbl> <chr>                  <dbl> <chr>         
 1 Harold and Maude             1971 Hal Ashby                 52 Bud Cort      
 2 Venus                        2006 Roger Mich…               50 Peter O'Toole 
 3 The Quiet American           2002 Phillip No…               49 Michael Caine 
 4 Solitary Man                 2009 Brian Kopp…               45 Michael Dougl…
 5 The Big Lebowski             1998 Joel Coen                 45 David Huddles…
 6 Beginners                    2010 Mike Mills                43 Christopher P…
 7 Poison Ivy                   1992 Katt Shea                 42 Tom Skerritt  
 8 Dirty Grandpa                2016 Dan Mazer                 41 Robert De Niro
 9 Whatever Works               2009 Woody Allen               40 Larry David   
10 Entrapment                   1999 Jon Amiel                 39 Sean Connery  
# ℹ 1,189 more rows
# ℹ 7 more variables: `Actor 1 Gender` <chr>, `Actor 1 Birthdate` <date>,
#   `Actor 1 Age` <dbl>, `Actor 2 Name` <chr>, `Actor 2 Gender` <chr>,
#   `Actor 2 Birthdate` <chr>, `Actor 2 Age` <dbl>
…
A recent past …

In welchen Filmen ist der Altersunterschied am höchsten?

age_gaps_correct %>% 
    arrange(desc(age_difference)) %>% 
    select(movie_name, age_difference, release_year) 

# A tibble: 1,199 × 3
   movie_name         age_difference release_year
   <chr>                       <dbl>        <dbl>
 1 Harold and Maude               52         1971
 2 Venus                          50         2006
 3 The Quiet American             49         2002
 4 Solitary Man                   45         2009
 5 The Big Lebowski               45         1998
 6 Beginners                      43         2010
 7 Poison Ivy                     42         1992
 8 Dirty Grandpa                  41         2016
 9 Whatever Works                 40         2009
10 Entrapment                     39         1999
# ℹ 1,189 more rows
…
