🔨 Topic Modeling in R – Digital behavioral data
…
# Create plotly
fig_excl %>% plotly::ggplotly()

Extraktion der Beta- & Gamma-Matrix

# Define model
tpm_k14 <- stm_results %>% 
   filter(k == 14) |> 
   pull(mdl) %>% .[[1]]

# Beta matrix
tpm_k14 %>% 
  tidy(., matrix = "frex") 

# A tibble: 154,490 × 2
   topic term                
   <int> <chr>               
 1     1 look_like           
 2     1 look_like_go        
 3     1 like_go             
 4     1 hahahahahahaha      
 5     1 look_like_s         
 6     1 think_go            
 7     1 check_moderator     
 8     1 fact_check_moderator
 9     1 moderator_fact      
10     1 moderator_fact_check
# ℹ 154,480 more rows

# Gamma matrix
tpm_k14 %>% 
  tidy(.,matrix = "gamma", 
    document_names = names(majority_report_chat_stm$documents)
    ) 

# A tibble: 322,840 × 3
   document                                 topic   gamma
   <chr>                                    <int>   <dbl>
 1 ChwKGkNJR2poT3pVdVlnREZha1FyUVlkblNrWS1B     1 0.0261 
 2 ChwKGkNLbXd3LXpVdVlnREZWd0wxZ0FkYW9FSWdB     1 0.0265 
 3 ChwKGkNKR1RsdV9VdVlnREZkNFhyUVlkZ2d3Tk5n     1 0.0123 
 4 ChwKGkNOQ3kxUExVdVlnREZVS1k1UWNkQ0t3Mlhn     1 0.0200 
 5 ChwKGkNPcW5fZkxVdVlnREZlSFJsQWtkbThZaUtR     1 0.0232 
 6 ChwKGkNNUHZzdlhVdVlnREZha1FyUVlkblNrWS1B     1 0.0236 
 7 ChwKGkNLT1JuX2pVdVlnREZZX0FsQWtkcEw4Wmd3     1 0.434  
 8 ChwKGkNLRElvZmpVdVlnREZaWExGZ2tkTy1ZSXVR     1 0.0118 
 9 ChwKGkNNblNqZm5VdVlnREZhX0l3Z1FkZUg0bHZn     1 0.0356 
10 ChwKGkNMeUkyUHZVdVlnREZXQUhyUVlkTUJvZ193     1 0.00307
# ℹ 322,830 more rows
…
